^C:\REPOSITORIOS\PROGRAMAFICHEROS_LECTOR\PROGRAMAFICHEROS_LECTOR\PROGRAMAFICHEROS_LECTOR.C
C:\REPOSITORIOS\PROGRAMAFICHEROS_LECTOR\PROGRAMAFICHEROS_LECTOR\DEBUG\VC142.PDB
C:\REPOSITORIOS\PROGRAMAFICHEROS_LECTOR\PROGRAMAFICHEROS_LECTOR\DEBUG\VC142.IDB
C:\REPOSITORIOS\PROGRAMAFICHEROS_LECTOR\PROGRAMAFICHEROS_LECTOR\DEBUG\PROGRAMAFICHEROS_LECTOR.OBJ
