^C:\REPOSITORIOS\NUMEROSASC0A50\NUMEROSASC0A50\DEBUG\NUMEROSASC0A50.OBJ
C:\REPOSITORIOS\NUMEROSASC0A50\DEBUG\NUMEROSASC0A50.ILK
C:\REPOSITORIOS\NUMEROSASC0A50\DEBUG\NUMEROSASC0A50.EXE
C:\REPOSITORIOS\NUMEROSASC0A50\DEBUG\NUMEROSASC0A50.PDB
